[
  {
    "key": "Fact.mode",
    "value": "Fact.mode"
  },
  {
    "key": "Fact.mode",
    "value": "Fact.aggregation"
  },
  {
    "key": "Fact.count",
    "value": "Fact.aggregatedItems"
  },
  {
    "key": "Command.fact",
    "value": "Command.output"
  },
  {
    "key": "FactGenerator.Factory",
    "value": "FactGenerator.FactGeneration"
  },
  {
    "key": "FactGenerator.factory",
    "value": "FactGenerator.generation"
  },
  {
    "key": "FactGenerator.generation",
    "value": "FactGenerator.generate"
  },
  {
    "key": "Categorization.recordType",
    "value": "Categorization.members"
  },
  {
    "key": ".Child",
    "value": ".Subordinate"
  },
  {
    "key": "Categorization.Category.Affiliation",
    "value": "Categorization.Category.CategoryChecker"
  },
  {
    "key": "Ticket.Origin",
    "value": "Ticket.Warehouse"
  },
  {
    "key": "FactsLoader.warehousePath",
    "value": "FactsLoader.warehousePath"
  }
]